{
    "name": "local.build.Editor",
    "rootNamespace": "LocalBuild",
    "references": [
        "Artees.SemanticVersioning",
        "OT Extensions and Utils Editor",
        "Unity.ResourceManager",
        "Unity.Addressables",
        "Unity.Addressables.Editor",
        "local.build.Runtime",
        "ot.attributes.Runtime"
    ],
    "includePlatforms": [
        "Editor"
    ],
    "excludePlatforms": [],
    "allowUnsafeCode": false,
    "overrideReferences": false,
    "precompiledReferences": [],
    "autoReferenced": true,
    "defineConstraints": [],
    "versionDefines": [],
    "noEngineReferences": false
}